A quick guide to deedR
…
a) Search for the information you need and download it

Let’s look up for all municipalities in Corede Hortênsias, where lies
the city of Gramado.

library(devtools)
devtools::install_github("fernandoilcruz/deedR")
#> Skipping install of 'deedR' from a github remote, the SHA1 (bab6a2c6) has not changed since last install.
#>   Use `force = TRUE` to force installation

deedR::geoagreg(ag = "corede")
#> # A tibble: 28 × 2
#>    geo_id geo_name                  
#>     <int> <chr>                     
#>  1     35 Alto da Serra do Botucaraí
#>  2      1 Alto Jacuí                
#>  3      2 Campanha                  
#>  4     38 Campos de Cima da Serra   
#>  5     40 Celeiro                   
#>  6      3 Central                   
#>  7      4 Centro Sul                
#>  8      5 Fronteira Noroeste        
#>  9      6 Fronteira Oeste           
#> 10      7 Hortênsias                
#> # ℹ 18 more rows
…
Lastly, to gather data into the same dataframe and compare them, we
need a From-To table. We can obtain it through the function
geoagregall2. Since the data we are interested in start in
2013, we’re going to use the default option, that leaves the argument
period in blank. Also, we’re going to hide the period
column.

ft_table <-
  deedR::geoagregall2() |>
  dplyr::select(-period)

ft_table
#> # A tibble: 497 × 10
#>    geo_id_municipio geo_name_municipio   geo_id_micro geo_name_micro geo_id_meso
#>               <int> <chr>                       <int> <chr>                <int>
#>  1              468 Aceguá                         33 Campanha Meri…          13
#>  2                1 Água Santa                     22 Passo Fundo              8
#>  3              459 Agudo                          35 Restinga Seca           10
#>  4                2 Ajuricaba                      20 Ijuí                     8
#>  5                3 Alecrim                        24 Santa Rosa               8
#>  6                4 Alegrete                       34 Campanha Ocid…          13
#>  7                5 Alegria                        20 Ijuí                     8
#>  8              469 Almirante Tamandaré…           15 Carazinho                8
#>  9                6 Alpestre                       19 Frederico Wes…           8
#> 10                7 Alto Alegre                    17 Cruz Alta                8
#> # ℹ 487 more rows
#> # ℹ 5 more variables: geo_name_meso <chr>, geo_id_corede <int>,
#> #   geo_name_corede <chr>, geo_id_estado <int>, geo_name_estado <chr>
…
